%YAML 1.1
%TAG !u! tag:unity3d.com,2011:
--- !u!29 &1
OcclusionCullingSettings:
  m_ObjectHideFlags: 0
  serializedVersion: 2
  m_OcclusionBakeSettings:
    smallestOccluder: 5
    smallestHole: 0.25
    backfaceThreshold: 100
  m_SceneGUID: 00000000000000000000000000000000
  m_OcclusionCullingData: {fileID: 0}
--- !u!104 &2
RenderSettings:
  m_ObjectHideFlags: 0
  serializedVersion: 9
  m_Fog: 0
  m_FogColor: {r: 0.5, g: 0.5, b: 0.5, a: 1}
  m_FogMode: 3
  m_FogDensity: 0.01
  m_LinearFogStart: 0
  m_LinearFogEnd: 300
  m_AmbientSkyColor: {r: 0.212, g: 0.227, b: 0.259, a: 1}
  m_AmbientEquatorColor: {r: 0.114, g: 0.125, b: 0.133, a: 1}
  m_AmbientGroundColor: {r: 0.047, g: 0.043, b: 0.035, a: 1}
  m_AmbientIntensity: 1
  m_AmbientMode: 0
  m_SubtractiveShadowColor: {r: 0.42, g: 0.478, b: 0.627, a: 1}
  m_SkyboxMaterial: {fileID: 10304, guid: 0000000000000000f000000000000000, type: 0}
  m_HaloStrength: 0.5
  m_FlareStrength: 1
  m_FlareFadeSpeed: 3
  m_HaloTexture: {fileID: 0}
  m_SpotCookie: {fileID: 10001, guid: 0000000000000000e000000000000000, type: 0}
  m_DefaultReflectionMode: 0
  m_DefaultReflectionResolution: 128
  m_ReflectionBounces: 1
  m_ReflectionIntensity: 1
  m_CustomReflection: {fileID: 0}
  m_Sun: {fileID: 0}
  m_IndirectSpecularColor: {r: 0.44657898, g: 0.4964133, b: 0.5748178, a: 1}
  m_UseRadianceAmbientProbe: 0
--- !u!157 &3
LightmapSettings:
  m_ObjectHideFlags: 0
  serializedVersion: 12
  m_GIWorkflowMode: 0
  m_GISettings:
    serializedVersion: 2
    m_BounceScale: 1
    m_IndirectOutputScale: 1
    m_AlbedoBoost: 1
    m_EnvironmentLightingMode: 0
    m_EnableBakedLightmaps: 1
    m_EnableRealtimeLightmaps: 1
  m_LightmapEditorSettings:
    serializedVersion: 12
    m_Resolution: 2
    m_BakeResolution: 40
    m_AtlasSize: 1024
    m_AO: 0
    m_AOMaxDistance: 1
    m_CompAOExponent: 1
    m_CompAOExponentDirect: 0
    m_ExtractAmbientOcclusion: 0
    m_Padding: 2
    m_LightmapParameters: {fileID: 0}
    m_LightmapsBakeMode: 1
    m_TextureCompression: 1
    m_FinalGather: 0
    m_FinalGatherFiltering: 1
    m_FinalGatherRayCount: 256
    m_ReflectionCompression: 2
    m_MixedBakeMode: 2
    m_BakeBackend: 1
    m_PVRSampling: 1
    m_PVRDirectSampleCount: 32
    m_PVRSampleCount: 500
    m_PVRBounces: 2
    m_PVREnvironmentSampleCount: 500
    m_PVREnvironmentReferencePointCount: 2048
    m_PVRFilteringMode: 2
    m_PVRDenoiserTypeDirect: 0
    m_PVRDenoiserTypeIndirect: 0
    m_PVRDenoiserTypeAO: 0
    m_PVRFilterTypeDirect: 0
    m_PVRFilterTypeIndirect: 0
    m_PVRFilterTypeAO: 0
    m_PVREnvironmentMIS: 0
    m_PVRCulling: 1
    m_PVRFilteringGaussRadiusDirect: 1
    m_PVRFilteringGaussRadiusIndirect: 5
    m_PVRFilteringGaussRadiusAO: 2
    m_PVRFilteringAtrousPositionSigmaDirect: 0.5
    m_PVRFilteringAtrousPositionSigmaIndirect: 2
    m_PVRFilteringAtrousPositionSigmaAO: 1
    m_ExportTrainingData: 0
    m_TrainingDataDestination: TrainingData
    m_LightProbeSampleCountMultiplier: 4
  m_LightingDataAsset: {fileID: 0}
  m_LightingSettings: {fileID: 4890085278179872738, guid: dc6ed513a1cce76438697d555f22b07f, type: 2}
--- !u!196 &4
NavMeshSettings:
  serializedVersion: 2
  m_ObjectHideFlags: 0
  m_BuildSettings:
    serializedVersion: 2
    agentTypeID: 0
    agentRadius: 0.5
    agentHeight: 2
    agentSlope: 45
    agentClimb: 0.4
    ledgeDropHeight: 0
    maxJumpAcrossDistance: 0
    minRegionArea: 2
    manualCellSize: 0
    cellSize: 0.16666667
    manualTileSize: 0
    tileSize: 256
    accuratePlacement: 0
    maxJobWorkers: 0
    preserveTilesOutsideBounds: 0
    debug:
      m_Flags: 0
  m_NavMeshData: {fileID: 0}
--- !u!1001 &115547224
PrefabInstance:
  m_ObjectHideFlags: 0
  serializedVersion: 2
  m_Modification:
    m_TransformParent: {fileID: 0}
    m_Modifications:
    - target: {fileID: 4071463830363502, guid: 02baef62b1bfedf40bb369fb7542b9e7, type: 3}
      propertyPath: m_RootOrder
      value: 12
      objectReference: {fileID: 0}
    - target: {fileID: 4071463830363502, guid: 02baef62b1bfedf40bb369fb7542b9e7, type: 3}
      propertyPath: m_LocalPosition.x
      value: 2.764
      objectReference: {fileID: 0}
    - target: {fileID: 4071463830363502, guid: 02baef62b1bfedf40bb369fb7542b9e7, type: 3}
      propertyPath: m_LocalPosition.y
      value: 0
      objectReference: {fileID: 0}
    - target: {fileID: 4071463830363502, guid: 02baef62b1bfedf40bb369fb7542b9e7, type: 3}
      propertyPath: m_LocalPosition.z
      value: 0
      objectReference: {fileID: 0}
    - target: {fileID: 4071463830363502, guid: 02baef62b1bfedf40bb369fb7542b9e7, type: 3}
      propertyPath: m_LocalRotation.w
      value: 1
      objectReference: {fileID: 0}
    - target: {fileID: 4071463830363502, guid: 02baef62b1bfedf40bb369fb7542b9e7, type: 3}
      propertyPath: m_LocalRotation.x
      value: 0
      objectReference: {fileID: 0}
    - target: {fileID: 4071463830363502, guid: 02baef62b1bfedf40bb369fb7542b9e7, type: 3}
      propertyPath: m_LocalRotation.y
      value: -0
      objectReference: {fileID: 0}
    - target: {fileID: 4071463830363502, guid: 02baef62b1bfedf40bb369fb7542b9e7, type: 3}
      propertyPath: m_LocalRotation.z
      value: -0
      objectReference: {fileID: 0}
    m_RemovedComponents: []
  m_SourcePrefab: {fileID: 100100000, guid: 02baef62b1bfedf40bb369fb7542b9e7, type: 3}
--- !u!1001 &205169582
PrefabInstance:
  m_ObjectHideFlags: 0
  serializedVersion: 2
  m_Modification:
    m_TransformParent: {fileID: 0}
    m_Modifications:
    - target: {fileID: 4195503654972328, guid: 8b4cba336c093ff41ae9321f9f8433d6, type: 3}
      propertyPath: m_RootOrder
      value: 13
      objectReference: {fileID: 0}
    - target: {fileID: 4195503654972328, guid: 8b4cba336c093ff41ae9321f9f8433d6, type: 3}
      propertyPath: m_LocalPosition.x
      value: 2.249
      objectReference: {fileID: 0}
    - target: {fileID: 4195503654972328, guid: 8b4cba336c093ff41ae9321f9f8433d6, type: 3}
      propertyPath: m_LocalPosition.y
      value: 0
      objectReference: {fileID: 0}
    - target: {fileID: 4195503654972328, guid: 8b4cba336c093ff41ae9321f9f8433d6, type: 3}
      propertyPath: m_LocalPosition.z
      value: 0.00078495237
      objectReference: {fileID: 0}
    - target: {fileID: 4195503654972328, guid: 8b4cba336c093ff41ae9321f9f8433d6, type: 3}
      propertyPath: m_LocalRotation.w
      value: 1
      objectReference: {fileID: 0}
    - target: {fileID: 4195503654972328, guid: 8b4cba336c093ff41ae9321f9f8433d6, type: 3}
      propertyPath: m_LocalRotation.x
      value: 0
      objectReference: {fileID: 0}
    - target: {fileID: 4195503654972328, guid: 8b4cba336c093ff41ae9321f9f8433d6, type: 3}
      propertyPath: m_LocalRotation.y
      value: -0
      objectReference: {fileID: 0}
    - target: {fileID: 4195503654972328, guid: 8b4cba336c093ff41ae9321f9f8433d6, type: 3}
      propertyPath: m_LocalRotation.z
      value: -0
      objectReference: {fileID: 0}
    m_RemovedComponents: []
  m_SourcePrefab: {fileID: 100100000, guid: 8b4cba336c093ff41ae9321f9f8433d6, type: 3}
--- !u!1001 &221976583
PrefabInstance:
  m_ObjectHideFlags: 0
  serializedVersion: 2
  m_Modification:
    m_TransformParent: {fileID: 0}
    m_Modifications:
    - target: {fileID: 4243371153570508, guid: 8b0b86b42def11849a8eba21f4a6a684, type: 3}
      propertyPath: m_RootOrder
      value: 4
      objectReference: {fileID: 0}
    - target: {fileID: 4243371153570508, guid: 8b0b86b42def11849a8eba21f4a6a684, type: 3}
      propertyPath: m_LocalPosition.x
      value: 6.605
      objectReference: {fileID: 0}
    - target: {fileID: 4243371153570508, guid: 8b0b86b42def11849a8eba21f4a6a684, type: 3}
      propertyPath: m_LocalPosition.y
      value: 0
      objectReference: {fileID: 0}
    - target: {fileID: 4243371153570508, guid: 8b0b86b42def11849a8eba21f4a6a684, type: 3}
      propertyPath: m_LocalPosition.z
      value: 0
      objectReference: {fileID: 0}
    - target: {fileID: 4243371153570508, guid: 8b0b86b42def11849a8eba21f4a6a684, type: 3}
      propertyPath: m_LocalRotation.w
      value: 1
      objectReference: {fileID: 0}
    - target: {fileID: 4243371153570508, guid: 8b0b86b42def11849a8eba21f4a6a684, type: 3}
      propertyPath: m_LocalRotation.x
      value: 0
      objectReference: {fileID: 0}
    - target: {fileID: 4243371153570508, guid: 8b0b86b42def11849a8eba21f4a6a684, type: 3}
      propertyPath: m_LocalRotation.y
      value: -0
      objectReference: {fileID: 0}
    - target: {fileID: 4243371153570508, guid: 8b0b86b42def11849a8eba21f4a6a684, type: 3}
      propertyPath: m_LocalRotation.z
      value: -0
      objectReference: {fileID: 0}
    m_RemovedComponents: []
  m_SourcePrefab: {fileID: 100100000, guid: 8b0b86b42def11849a8eba21f4a6a684, type: 3}
--- !u!1001 &904773518
PrefabInstance:
  m_ObjectHideFlags: 0
  serializedVersion: 2
  m_Modification:
    m_TransformParent: {fileID: 0}
    m_Modifications:
    - target: {fileID: 4523601712017382, guid: 49535f27af2648646a94c1f9918737d6, type: 3}
      propertyPath: m_RootOrder
      value: 15
      objectReference: {fileID: 0}
    - target: {fileID: 4523601712017382, guid: 49535f27af2648646a94c1f9918737d6, type: 3}
      propertyPath: m_LocalPosition.x
      value: 1.284
      objectReference: {fileID: 0}
    - target: {fileID: 4523601712017382, guid: 49535f27af2648646a94c1f9918737d6, type: 3}
      propertyPath: m_LocalPosition.y
      value: 0
      objectReference: {fileID: 0}
    - target: {fileID: 4523601712017382, guid: 49535f27af2648646a94c1f9918737d6, type: 3}
      propertyPath: m_LocalPosition.z
      value: 0
      objectReference: {fileID: 0}
    - target: {fileID: 4523601712017382, guid: 49535f27af2648646a94c1f9918737d6, type: 3}
      propertyPath: m_LocalRotation.w
      value: 1
      objectReference: {fileID: 0}
    - target: {fileID: 4523601712017382, guid: 49535f27af2648646a94c1f9918737d6, type: 3}
      propertyPath: m_LocalRotation.x
      value: 0
      objectReference: {fileID: 0}
    - target: {fileID: 4523601712017382, guid: 49535f27af2648646a94c1f9918737d6, type: 3}
      propertyPath: m_LocalRotation.y
      value: -0
      objectReference: {fileID: 0}
    - target: {fileID: 4523601712017382, guid: 49535f27af2648646a94c1f9918737d6, type: 3}
      propertyPath: m_LocalRotation.z
      value: -0
      objectReference: {fileID: 0}
    m_RemovedComponents: []
  m_SourcePrefab: {fileID: 100100000, guid: 49535f27af2648646a94c1f9918737d6, type: 3}
--- !u!1001 &980701404
PrefabInstance:
  m_ObjectHideFlags: 0
  serializedVersion: 2
  m_Modification:
    m_TransformParent: {fileID: 0}
    m_Modifications:
    - target: {fileID: 4952727429218122, guid: 6f1a7354265853f44b0ed5e2e43676ad, type: 3}
      propertyPath: m_RootOrder
      value: 10
      objectReference: {fileID: 0}
    - target: {fileID: 4952727429218122, guid: 6f1a7354265853f44b0ed5e2e43676ad, type: 3}
      propertyPath: m_LocalPosition.x
      value: 3.849
      objectReference: {fileID: 0}
    - target: {fileID: 4952727429218122, guid: 6f1a7354265853f44b0ed5e2e43676ad, type: 3}
      propertyPath: m_LocalPosition.y
      value: 0
      objectReference: {fileID: 0}
    - target: {fileID: 4952727429218122, guid: 6f1a7354265853f44b0ed5e2e43676ad, type: 3}
      propertyPath: m_LocalPosition.z
      value: 0
      objectReference: {fileID: 0}
    - target: {fileID: 4952727429218122, guid: 6f1a7354265853f44b0ed5e2e43676ad, type: 3}
      propertyPath: m_LocalRotation.w
      value: 1
      objectReference: {fileID: 0}
    - target: {fileID: 4952727429218122, guid: 6f1a7354265853f44b0ed5e2e43676ad, type: 3}
      propertyPath: m_LocalRotation.x
      value: 0
      objectReference: {fileID: 0}
    - target: {fileID: 4952727429218122, guid: 6f1a7354265853f44b0ed5e2e43676ad, type: 3}
      propertyPath: m_LocalRotation.y
      value: 0
      objectReference: {fileID: 0}
    - target: {fileID: 4952727429218122, guid: 6f1a7354265853f44b0ed5e2e43676ad, type: 3}
      propertyPath: m_LocalRotation.z
      value: 0
      objectReference: {fileID: 0}
    m_RemovedComponents: []
  m_SourcePrefab: {fileID: 100100000, guid: 6f1a7354265853f44b0ed5e2e43676ad, type: 3}
--- !u!1001 &1035694277
PrefabInstance:
  m_ObjectHideFlags: 0
  serializedVersion: 2
  m_Modification:
    m_TransformParent: {fileID: 0}
    m_Modifications:
    - target: {fileID: 4489439191758400, guid: 3077a2b322d12b94c975bb1c7b2993fb, type: 3}
      propertyPath: m_RootOrder
      value: 17
      objectReference: {fileID: 0}
    - target: {fileID: 4489439191758400, guid: 3077a2b322d12b94c975bb1c7b2993fb, type: 3}
      propertyPath: m_LocalPosition.x
      value: 0
      objectReference: {fileID: 0}
    - target: {fileID: 4489439191758400, guid: 3077a2b322d12b94c975bb1c7b2993fb, type: 3}
      propertyPath: m_LocalPosition.y
      value: 0
      objectReference: {fileID: 0}
    - target: {fileID: 4489439191758400, guid: 3077a2b322d12b94c975bb1c7b2993fb, type: 3}
      propertyPath: m_LocalPosition.z
      value: 0
      objectReference: {fileID: 0}
    - target: {fileID: 4489439191758400, guid: 3077a2b322d12b94c975bb1c7b2993fb, type: 3}
      propertyPath: m_LocalRotation.w
      value: 1
      objectReference: {fileID: 0}
    - target: {fileID: 4489439191758400, guid: 3077a2b322d12b94c975bb1c7b2993fb, type: 3}
      propertyPath: m_LocalRotation.x
      value: 0
      objectReference: {fileID: 0}
    - target: {fileID: 4489439191758400, guid: 3077a2b322d12b94c975bb1c7b2993fb, type: 3}
      propertyPath: m_LocalRotation.y
      value: 0
      objectReference: {fileID: 0}
    - target: {fileID: 4489439191758400, guid: 3077a2b322d12b94c975bb1c7b2993fb, type: 3}
      propertyPath: m_LocalRotation.z
      value: 0
      objectReference: {fileID: 0}
    m_RemovedComponents: []
  m_SourcePrefab: {fileID: 100100000, guid: 3077a2b322d12b94c975bb1c7b2993fb, type: 3}
--- !u!1 &1170332121
GameObject:
  m_ObjectHideFlags: 0
  m_CorrespondingSourceObject: {fileID: 0}
  m_PrefabInstance: {fileID: 0}
  m_PrefabAsset: {fileID: 0}
  serializedVersion: 6
  m_Component:
  - component: {fileID: 1170332124}
  - component: {fileID: 1170332123}
  - component: {fileID: 1170332122}
  m_Layer: 0
  m_Name: Main Camera
  m_TagString: MainCamera
  m_Icon: {fileID: 0}
  m_NavMeshLayer: 0
  m_StaticEditorFlags: 0
  m_IsActive: 1
--- !u!81 &1170332122
AudioListener:
  m_ObjectHideFlags: 0
  m_CorrespondingSourceObject: {fileID: 0}
  m_PrefabInstance: {fileID: 0}
  m_PrefabAsset: {fileID: 0}
  m_GameObject: {fileID: 1170332121}
  m_Enabled: 1
--- !u!20 &1170332123
Camera:
  m_ObjectHideFlags: 0
  m_CorrespondingSourceObject: {fileID: 0}
  m_PrefabInstance: {fileID: 0}
  m_PrefabAsset: {fileID: 0}
  m_GameObject: {fileID: 1170332121}
  m_Enabled: 1
  serializedVersion: 2
  m_ClearFlags: 1
  m_BackGroundColor: {r: 0.627451, g: 0.73333335, b: 0.83921576, a: 1}
  m_projectionMatrixMode: 1
  m_GateFitMode: 2
  m_FOVAxisMode: 0
  m_SensorSize: {x: 36, y: 24}
  m_LensShift: {x: 0, y: 0}
  m_FocalLength: 50
  m_NormalizedViewPortRect:
    serializedVersion: 2
    x: 0
    y: 0
    width: 1
    height: 1
  near clip plane: 0.01
  far clip plane: 1000
  field of view: 60
  orthographic: 0
  orthographic size: 1.5
  m_Depth: -1
  m_CullingMask:
    serializedVersion: 2
    m_Bits: 4294967295
  m_RenderingPath: -1
  m_TargetTexture: {fileID: 0}
  m_TargetDisplay: 0
  m_TargetEye: 3
  m_HDR: 1
  m_AllowMSAA: 1
  m_AllowDynamicResolution: 0
  m_ForceIntoRT: 0
  m_OcclusionCulling: 1
  m_StereoConvergence: 10
  m_StereoSeparation: 0.022
--- !u!4 &1170332124
Transform:
  m_ObjectHideFlags: 0
  m_CorrespondingSourceObject: {fileID: 0}
  m_PrefabInstance: {fileID: 0}
  m_PrefabAsset: {fileID: 0}
  m_GameObject: {fileID: 1170332121}
  m_LocalRotation: {x: 0.15260017, y: 0.43605733, z: -0.07530165, w: 0.8836837}
  m_LocalPosition: {x: -1.081, y: 1.134, z: -1.59}
  m_LocalScale: {x: 1, y: 1, z: 1}
  m_Children: []
  m_Father: {fileID: 0}
  m_RootOrder: 1
  m_LocalEulerAnglesHint: {x: 0, y: 0, z: 0}
--- !u!1 &1183613464
GameObject:
  m_ObjectHideFlags: 0
  m_CorrespondingSourceObject: {fileID: 0}
  m_PrefabInstance: {fileID: 0}
  m_PrefabAsset: {fileID: 0}
  serializedVersion: 6
  m_Component:
  - component: {fileID: 1183613466}
  - component: {fileID: 1183613465}
  m_Layer: 0
  m_Name: Directional Light
  m_TagString: Untagged
  m_Icon: {fileID: 0}
  m_NavMeshLayer: 0
  m_StaticEditorFlags: 0
  m_IsActive: 1
--- !u!108 &1183613465
Light:
  m_ObjectHideFlags: 0
  m_CorrespondingSourceObject: {fileID: 0}
  m_PrefabInstance: {fileID: 0}
  m_PrefabAsset: {fileID: 0}
  m_GameObject: {fileID: 1183613464}
  m_Enabled: 1
  serializedVersion: 10
  m_Type: 1
  m_Shape: 0
  m_Color: {r: 1, g: 1, b: 1, a: 1}
  m_Intensity: 1
  m_Range: 10
  m_SpotAngle: 30
  m_InnerSpotAngle: 21.80208
  m_CookieSize: 10
  m_Shadows:
    m_Type: 0
    m_Resolution: -1
    m_CustomResolution: -1
    m_Strength: 1
    m_Bias: 0.05
    m_NormalBias: 0.4
    m_NearPlane: 0.2
    m_CullingMatrixOverride:
      e00: 1
      e01: 0
      e02: 0
      e03: 0
      e10: 0
      e11: 1
      e12: 0
      e13: 0
      e20: 0
      e21: 0
      e22: 1
      e23: 0
      e30: 0
      e31: 0
      e32: 0
      e33: 1
    m_UseCullingMatrixOverride: 0
  m_Cookie: {fileID: 0}
  m_DrawHalo: 0
  m_Flare: {fileID: 0}
  m_RenderMode: 0
  m_CullingMask:
    serializedVersion: 2
    m_Bits: 4294967295
  m_RenderingLayerMask: 1
  m_Lightmapping: 4
  m_LightShadowCasterMode: 0
  m_AreaSize: {x: 1, y: 1}
  m_BounceIntensity: 1
  m_ColorTemperature: 6570
  m_UseColorTemperature: 0
  m_BoundingSphereOverride: {x: 0, y: 0, z: 0, w: 0}
  m_UseBoundingSphereOverride: 0
  m_UseViewFrustumForShadowCasterCull: 1
  m_ShadowRadius: 0
  m_ShadowAngle: 0
--- !u!4 &1183613466
Transform:
  m_ObjectHideFlags: 0
  m_CorrespondingSourceObject: {fileID: 0}
  m_PrefabInstance: {fileID: 0}
  m_PrefabAsset: {fileID: 0}
  m_GameObject: {fileID: 1183613464}
  m_LocalRotation: {x: 0.40821794, y: -0.23456971, z: 0.109381646, w: 0.8754261}
  m_LocalPosition: {x: -0.34179592, y: 2.6386104, z: -0.56591845}
  m_LocalScale: {x: 1, y: 1, z: 1}
  m_Children: []
  m_Father: {fileID: 0}
  m_RootOrder: 0
  m_LocalEulerAnglesHint: {x: 50, y: -30, z: 0}
--- !u!1001 &1199380291
PrefabInstance:
  m_ObjectHideFlags: 0
  serializedVersion: 2
  m_Modification:
    m_TransformParent: {fileID: 0}
    m_Modifications:
    - target: {fileID: 4519716788627816, guid: ee329c3cd08e58645834d20702d7f6c6, type: 3}
      propertyPath: m_RootOrder
      value: 2
      objectReference: {fileID: 0}
    - target: {fileID: 4519716788627816, guid: ee329c3cd08e58645834d20702d7f6c6, type: 3}
      propertyPath: m_LocalPosition.x
      value: 7.483
      objectReference: {fileID: 0}
    - target: {fileID: 4519716788627816, guid: ee329c3cd08e58645834d20702d7f6c6, type: 3}
      propertyPath: m_LocalPosition.y
      value: 0
      objectReference: {fileID: 0}
    - target: {fileID: 4519716788627816, guid: ee329c3cd08e58645834d20702d7f6c6, type: 3}
      propertyPath: m_LocalPosition.z
      value: 0
      objectReference: {fileID: 0}
    - target: {fileID: 4519716788627816, guid: ee329c3cd08e58645834d20702d7f6c6, type: 3}
      propertyPath: m_LocalRotation.w
      value: 1
      objectReference: {fileID: 0}
    - target: {fileID: 4519716788627816, guid: ee329c3cd08e58645834d20702d7f6c6, type: 3}
      propertyPath: m_LocalRotation.x
      value: 0
      objectReference: {fileID: 0}
    - target: {fileID: 4519716788627816, guid: ee329c3cd08e58645834d20702d7f6c6, type: 3}
      propertyPath: m_LocalRotation.y
      value: -0
      objectReference: {fileID: 0}
    - target: {fileID: 4519716788627816, guid: ee329c3cd08e58645834d20702d7f6c6, type: 3}
      propertyPath: m_LocalRotation.z
      value: -0
      objectReference: {fileID: 0}
    m_RemovedComponents: []
  m_SourcePrefab: {fileID: 100100000, guid: ee329c3cd08e58645834d20702d7f6c6, type: 3}
--- !u!1001 &1541977298
PrefabInstance:
  m_ObjectHideFlags: 0
  serializedVersion: 2
  m_Modification:
    m_TransformParent: {fileID: 0}
    m_Modifications:
    - target: {fileID: 4042994505972974, guid: 75aeffeed5a736f46afbef3a42e93fab, type: 3}
      propertyPath: m_RootOrder
      value: 5
      objectReference: {fileID: 0}
    - target: {fileID: 4042994505972974, guid: 75aeffeed5a736f46afbef3a42e93fab, type: 3}
      propertyPath: m_LocalPosition.x
      value: 6.198
      objectReference: {fileID: 0}
    - target: {fileID: 4042994505972974, guid: 75aeffeed5a736f46afbef3a42e93fab, type: 3}
      propertyPath: m_LocalPosition.y
      value: 0
      objectReference: {fileID: 0}
    - target: {fileID: 4042994505972974, guid: 75aeffeed5a736f46afbef3a42e93fab, type: 3}
      propertyPath: m_LocalPosition.z
      value: 0
      objectReference: {fileID: 0}
    - target: {fileID: 4042994505972974, guid: 75aeffeed5a736f46afbef3a42e93fab, type: 3}
      propertyPath: m_LocalRotation.w
      value: 1
      objectReference: {fileID: 0}
    - target: {fileID: 4042994505972974, guid: 75aeffeed5a736f46afbef3a42e93fab, type: 3}
      propertyPath: m_LocalRotation.x
      value: 0
      objectReference: {fileID: 0}
    - target: {fileID: 4042994505972974, guid: 75aeffeed5a736f46afbef3a42e93fab, type: 3}
      propertyPath: m_LocalRotation.y
      value: -0
      objectReference: {fileID: 0}
    - target: {fileID: 4042994505972974, guid: 75aeffeed5a736f46afbef3a42e93fab, type: 3}
      propertyPath: m_LocalRotation.z
      value: -0
      objectReference: {fileID: 0}
    m_RemovedComponents: []
  m_SourcePrefab: {fileID: 100100000, guid: 75aeffeed5a736f46afbef3a42e93fab, type: 3}
--- !u!1001 &1588253381
PrefabInstance:
  m_ObjectHideFlags: 0
  serializedVersion: 2
  m_Modification:
    m_TransformParent: {fileID: 0}
    m_Modifications:
    - target: {fileID: 4379243761268538, guid: 5a2bf64643e1fb0439ea39c0fc9b00ff, type: 3}
      propertyPath: m_RootOrder
      value: 11
      objectReference: {fileID: 0}
    - target: {fileID: 4379243761268538, guid: 5a2bf64643e1fb0439ea39c0fc9b00ff, type: 3}
      propertyPath: m_LocalPosition.x
      value: 3.322
      objectReference: {fileID: 0}
    - target: {fileID: 4379243761268538, guid: 5a2bf64643e1fb0439ea39c0fc9b00ff, type: 3}
      propertyPath: m_LocalPosition.y
      value: 0
      objectReference: {fileID: 0}
    - target: {fileID: 4379243761268538, guid: 5a2bf64643e1fb0439ea39c0fc9b00ff, type: 3}
      propertyPath: m_LocalPosition.z
      value: 0
      objectReference: {fileID: 0}
    - target: {fileID: 4379243761268538, guid: 5a2bf64643e1fb0439ea39c0fc9b00ff, type: 3}
      propertyPath: m_LocalRotation.w
      value: 1
      objectReference: {fileID: 0}
    - target: {fileID: 4379243761268538, guid: 5a2bf64643e1fb0439ea39c0fc9b00ff, type: 3}
      propertyPath: m_LocalRotation.x
      value: 0
      objectReference: {fileID: 0}
    - target: {fileID: 4379243761268538, guid: 5a2bf64643e1fb0439ea39c0fc9b00ff, type: 3}
      propertyPath: m_LocalRotation.y
      value: -0
      objectReference: {fileID: 0}
    - target: {fileID: 4379243761268538, guid: 5a2bf64643e1fb0439ea39c0fc9b00ff, type: 3}
      propertyPath: m_LocalRotation.z
      value: -0
      objectReference: {fileID: 0}
    m_RemovedComponents: []
  m_SourcePrefab: {fileID: 100100000, guid: 5a2bf64643e1fb0439ea39c0fc9b00ff, type: 3}
--- !u!1001 &1670030319
PrefabInstance:
  m_ObjectHideFlags: 0
  serializedVersion: 2
  m_Modification:
    m_TransformParent: {fileID: 0}
    m_Modifications:
    - target: {fileID: 4251306428143386, guid: 432643b6e5110004083fdff3e33e490b, type: 3}
      propertyPath: m_RootOrder
      value: 9
      objectReference: {fileID: 0}
    - target: {fileID: 4251306428143386, guid: 432643b6e5110004083fdff3e33e490b, type: 3}
      propertyPath: m_LocalPosition.x
      value: 4.336277
      objectReference: {fileID: 0}
    - target: {fileID: 4251306428143386, guid: 432643b6e5110004083fdff3e33e490b, type: 3}
      propertyPath: m_LocalPosition.y
      value: 0
      objectReference: {fileID: 0}
    - target: {fileID: 4251306428143386, guid: 432643b6e5110004083fdff3e33e490b, type: 3}
      propertyPath: m_LocalPosition.z
      value: 3.9208386e-18
      objectReference: {fileID: 0}
    - target: {fileID: 4251306428143386, guid: 432643b6e5110004083fdff3e33e490b, type: 3}
      propertyPath: m_LocalRotation.w
      value: 1
      objectReference: {fileID: 0}
    - target: {fileID: 4251306428143386, guid: 432643b6e5110004083fdff3e33e490b, type: 3}
      propertyPath: m_LocalRotation.x
      value: 0
      objectReference: {fileID: 0}
    - target: {fileID: 4251306428143386, guid: 432643b6e5110004083fdff3e33e490b, type: 3}
      propertyPath: m_LocalRotation.y
      value: -0
      objectReference: {fileID: 0}
    - target: {fileID: 4251306428143386, guid: 432643b6e5110004083fdff3e33e490b, type: 3}
      propertyPath: m_LocalRotation.z
      value: -0
      objectReference: {fileID: 0}
    m_RemovedComponents: []
  m_SourcePrefab: {fileID: 100100000, guid: 432643b6e5110004083fdff3e33e490b, type: 3}
--- !u!1001 &1793186671
PrefabInstance:
  m_ObjectHideFlags: 0
  serializedVersion: 2
  m_Modification:
    m_TransformParent: {fileID: 0}
    m_Modifications:
    - target: {fileID: 4012160720677748, guid: cb825447b7c1ef442a049949c3f95ba7, type: 3}
      propertyPath: m_RootOrder
      value: 14
      objectReference: {fileID: 0}
    - target: {fileID: 4012160720677748, guid: cb825447b7c1ef442a049949c3f95ba7, type: 3}
      propertyPath: m_LocalPosition.x
      value: 1.766
      objectReference: {fileID: 0}
    - target: {fileID: 4012160720677748, guid: cb825447b7c1ef442a049949c3f95ba7, type: 3}
      propertyPath: m_LocalPosition.y
      value: 0
      objectReference: {fileID: 0}
    - target: {fileID: 4012160720677748, guid: cb825447b7c1ef442a049949c3f95ba7, type: 3}
      propertyPath: m_LocalPosition.z
      value: 0
      objectReference: {fileID: 0}
    - target: {fileID: 4012160720677748, guid: cb825447b7c1ef442a049949c3f95ba7, type: 3}
      propertyPath: m_LocalRotation.w
      value: 1
      objectReference: {fileID: 0}
    - target: {fileID: 4012160720677748, guid: cb825447b7c1ef442a049949c3f95ba7, type: 3}
      propertyPath: m_LocalRotation.x
      value: 0
      objectReference: {fileID: 0}
    - target: {fileID: 4012160720677748, guid: cb825447b7c1ef442a049949c3f95ba7, type: 3}
      propertyPath: m_LocalRotation.y
      value: 0
      objectReference: {fileID: 0}
    - target: {fileID: 4012160720677748, guid: cb825447b7c1ef442a049949c3f95ba7, type: 3}
      propertyPath: m_LocalRotation.z
      value: 0
      objectReference: {fileID: 0}
    m_RemovedComponents: []
  m_SourcePrefab: {fileID: 100100000, guid: cb825447b7c1ef442a049949c3f95ba7, type: 3}
--- !u!1001 &1842083679
PrefabInstance:
  m_ObjectHideFlags: 0
  serializedVersion: 2
  m_Modification:
    m_TransformParent: {fileID: 0}
    m_Modifications:
    - target: {fileID: 4408339615606960, guid: c0f110e4459b675489b7db1e686d5bc3, type: 3}
      propertyPath: m_RootOrder
      value: 6
      objectReference: {fileID: 0}
    - target: {fileID: 4408339615606960, guid: c0f110e4459b675489b7db1e686d5bc3, type: 3}
      propertyPath: m_LocalPosition.x
      value: 5.873
      objectReference: {fileID: 0}
    - target: {fileID: 4408339615606960, guid: c0f110e4459b675489b7db1e686d5bc3, type: 3}
      propertyPath: m_LocalPosition.y
      value: 0.020520177
      objectReference: {fileID: 0}
    - target: {fileID: 4408339615606960, guid: c0f110e4459b675489b7db1e686d5bc3, type: 3}
      propertyPath: m_LocalPosition.z
      value: 0.00066499284
      objectReference: {fileID: 0}
    - target: {fileID: 4408339615606960, guid: c0f110e4459b675489b7db1e686d5bc3, type: 3}
      propertyPath: m_LocalRotation.w
      value: 1
      objectReference: {fileID: 0}
    - target: {fileID: 4408339615606960, guid: c0f110e4459b675489b7db1e686d5bc3, type: 3}
      propertyPath: m_LocalRotation.x
      value: 0
      objectReference: {fileID: 0}
    - target: {fileID: 4408339615606960, guid: c0f110e4459b675489b7db1e686d5bc3, type: 3}
      propertyPath: m_LocalRotation.y
      value: -0
      objectReference: {fileID: 0}
    - target: {fileID: 4408339615606960, guid: c0f110e4459b675489b7db1e686d5bc3, type: 3}
      propertyPath: m_LocalRotation.z
      value: -0
      objectReference: {fileID: 0}
    m_RemovedComponents: []
  m_SourcePrefab: {fileID: 100100000, guid: c0f110e4459b675489b7db1e686d5bc3, type: 3}
--- !u!1001 &1916734876
PrefabInstance:
  m_ObjectHideFlags: 0
  serializedVersion: 2
  m_Modification:
    m_TransformParent: {fileID: 0}
    m_Modifications:
    - target: {fileID: 4907130060635364, guid: 6273e2936e9d6a24e9f64c7c70d6bd19, type: 3}
      propertyPath: m_RootOrder
      value: 16
      objectReference: {fileID: 0}
    - target: {fileID: 4907130060635364, guid: 6273e2936e9d6a24e9f64c7c70d6bd19, type: 3}
      propertyPath: m_LocalPosition.x
      value: 0.744
      objectReference: {fileID: 0}
    - target: {fileID: 4907130060635364, guid: 6273e2936e9d6a24e9f64c7c70d6bd19, type: 3}
      propertyPath: m_LocalPosition.y
      value: -0.025039347
      objectReference: {fileID: 0}
    - target: {fileID: 4907130060635364, guid: 6273e2936e9d6a24e9f64c7c70d6bd19, type: 3}
      propertyPath: m_LocalPosition.z
      value: -0.016568968
      objectReference: {fileID: 0}
    - target: {fileID: 4907130060635364, guid: 6273e2936e9d6a24e9f64c7c70d6bd19, type: 3}
      propertyPath: m_LocalRotation.w
      value: 1
      objectReference: {fileID: 0}
    - target: {fileID: 4907130060635364, guid: 6273e2936e9d6a24e9f64c7c70d6bd19, type: 3}
      propertyPath: m_LocalRotation.x
      value: 0
      objectReference: {fileID: 0}
    - target: {fileID: 4907130060635364, guid: 6273e2936e9d6a24e9f64c7c70d6bd19, type: 3}
      propertyPath: m_LocalRotation.y
      value: -0
      objectReference: {fileID: 0}
    - target: {fileID: 4907130060635364, guid: 6273e2936e9d6a24e9f64c7c70d6bd19, type: 3}
      propertyPath: m_LocalRotation.z
      value: -0
      objectReference: {fileID: 0}
    m_RemovedComponents: []
  m_SourcePrefab: {fileID: 100100000, guid: 6273e2936e9d6a24e9f64c7c70d6bd19, type: 3}
--- !u!1001 &1967028148
PrefabInstance:
  m_ObjectHideFlags: 0
  serializedVersion: 2
  m_Modification:
    m_TransformParent: {fileID: 0}
    m_Modifications:
    - target: {fileID: 4115101639876266, guid: 0c4a58b408c72d141bb4ae5633ef3744, type: 3}
      propertyPath: m_RootOrder
      value: 3
      objectReference: {fileID: 0}
    - target: {fileID: 4115101639876266, guid: 0c4a58b408c72d141bb4ae5633ef3744, type: 3}
      propertyPath: m_LocalPosition.x
      value: 7.012
      objectReference: {fileID: 0}
    - target: {fileID: 4115101639876266, guid: 0c4a58b408c72d141bb4ae5633ef3744, type: 3}
      propertyPath: m_LocalPosition.y
      value: 0
      objectReference: {fileID: 0}
    - target: {fileID: 4115101639876266, guid: 0c4a58b408c72d141bb4ae5633ef3744, type: 3}
      propertyPath: m_LocalPosition.z
      value: 0
      objectReference: {fileID: 0}
    - target: {fileID: 4115101639876266, guid: 0c4a58b408c72d141bb4ae5633ef3744, type: 3}
      propertyPath: m_LocalRotation.w
      value: 1
      objectReference: {fileID: 0}
    - target: {fileID: 4115101639876266, guid: 0c4a58b408c72d141bb4ae5633ef3744, type: 3}
      propertyPath: m_LocalRotation.x
      value: 0
      objectReference: {fileID: 0}
    - target: {fileID: 4115101639876266, guid: 0c4a58b408c72d141bb4ae5633ef3744, type: 3}
      propertyPath: m_LocalRotation.y
      value: -0
      objectReference: {fileID: 0}
    - target: {fileID: 4115101639876266, guid: 0c4a58b408c72d141bb4ae5633ef3744, type: 3}
      propertyPath: m_LocalRotation.z
      value: -0
      objectReference: {fileID: 0}
    m_RemovedComponents: []
  m_SourcePrefab: {fileID: 100100000, guid: 0c4a58b408c72d141bb4ae5633ef3744, type: 3}
--- !u!1001 &1973529479
PrefabInstance:
  m_ObjectHideFlags: 0
  serializedVersion: 2
  m_Modification:
    m_TransformParent: {fileID: 0}
    m_Modifications:
    - target: {fileID: 4035219142733080, guid: 689946d975a0e55449b1e7ae41933e73, type: 3}
      propertyPath: m_RootOrder
      value: 7
      objectReference: {fileID: 0}
    - target: {fileID: 4035219142733080, guid: 689946d975a0e55449b1e7ae41933e73, type: 3}
      propertyPath: m_LocalPosition.x
      value: 5.4
      objectReference: {fileID: 0}
    - target: {fileID: 4035219142733080, guid: 689946d975a0e55449b1e7ae41933e73, type: 3}
      propertyPath: m_LocalPosition.y
      value: 0
      objectReference: {fileID: 0}
    - target: {fileID: 4035219142733080, guid: 689946d975a0e55449b1e7ae41933e73, type: 3}
      propertyPath: m_LocalPosition.z
      value: 0
      objectReference: {fileID: 0}
    - target: {fileID: 4035219142733080, guid: 689946d975a0e55449b1e7ae41933e73, type: 3}
      propertyPath: m_LocalRotation.w
      value: 1
      objectReference: {fileID: 0}
    - target: {fileID: 4035219142733080, guid: 689946d975a0e55449b1e7ae41933e73, type: 3}
      propertyPath: m_LocalRotation.x
      value: 0
      objectReference: {fileID: 0}
    - target: {fileID: 4035219142733080, guid: 689946d975a0e55449b1e7ae41933e73, type: 3}
      propertyPath: m_LocalRotation.y
      value: -0
      objectReference: {fileID: 0}
    - target: {fileID: 4035219142733080, guid: 689946d975a0e55449b1e7ae41933e73, type: 3}
      propertyPath: m_LocalRotation.z
      value: -0
      objectReference: {fileID: 0}
    m_RemovedComponents: []
  m_SourcePrefab: {fileID: 100100000, guid: 689946d975a0e55449b1e7ae41933e73, type: 3}
--- !u!1001 &2098553370
PrefabInstance:
  m_ObjectHideFlags: 0
  serializedVersion: 2
  m_Modification:
    m_TransformParent: {fileID: 0}
    m_Modifications:
    - target: {fileID: 4053999043310118, guid: 7359baf27e84aa44cafac3788c8be0f1, type: 3}
      propertyPath: m_RootOrder
      value: 8
      objectReference: {fileID: 0}
    - target: {fileID: 4053999043310118, guid: 7359baf27e84aa44cafac3788c8be0f1, type: 3}
      propertyPath: m_LocalPosition.x
      value: 4.938
      objectReference: {fileID: 0}
    - target: {fileID: 4053999043310118, guid: 7359baf27e84aa44cafac3788c8be0f1, type: 3}
      propertyPath: m_LocalPosition.y
      value: 0
      objectReference: {fileID: 0}
    - target: {fileID: 4053999043310118, guid: 7359baf27e84aa44cafac3788c8be0f1, type: 3}
      propertyPath: m_LocalPosition.z
      value: 0
      objectReference: {fileID: 0}
    - target: {fileID: 4053999043310118, guid: 7359baf27e84aa44cafac3788c8be0f1, type: 3}
      propertyPath: m_LocalRotation.w
      value: 1
      objectReference: {fileID: 0}
    - target: {fileID: 4053999043310118, guid: 7359baf27e84aa44cafac3788c8be0f1, type: 3}
      propertyPath: m_LocalRotation.x
      value: 0
      objectReference: {fileID: 0}
    - target: {fileID: 4053999043310118, guid: 7359baf27e84aa44cafac3788c8be0f1, type: 3}
      propertyPath: m_LocalRotation.y
      value: -0
      objectReference: {fileID: 0}
    - target: {fileID: 4053999043310118, guid: 7359baf27e84aa44cafac3788c8be0f1, type: 3}
      propertyPath: m_LocalRotation.z
      value: -0
      objectReference: {fileID: 0}
    m_RemovedComponents: []
  m_SourcePrefab: {fileID: 100100000, guid: 7359baf27e84aa44cafac3788c8be0f1, type: 3}
