%YAML 1.1
%TAG !u! tag:unity3d.com,2011:
--- !u!114 &11400000
MonoBehaviour:
  m_ObjectHideFlags: 0
  m_CorrespondingSourceObject: {fileID: 0}
  m_PrefabInstance: {fileID: 0}
  m_PrefabAsset: {fileID: 0}
  m_GameObject: {fileID: 0}
  m_Enabled: 1
  m_EditorHideFlags: 0
  m_Script: {fileID: 11500000, guid: 5f058dcb4d4558c4495630464b0f7177, type: 3}
  m_Name: Level 2
  m_EditorClassIdentifier: 
  ChallengeLevel: 2
  MinWaitTime: 15
  MaxWaitTime: 20
  IncrementPerWave: 0.3
  FirstWaveAmount: 4
  MaxWaves: 3
  enemyLevels:
  - ChallengeLevel: 1
    Weight: 2
  - ChallengeLevel: 2
    Weight: 1
