%YAML 1.1
%TAG !u! tag:unity3d.com,2011:
--- !u!1 &4918238262316254320
GameObject:
  m_ObjectHideFlags: 0
  m_CorrespondingSourceObject: {fileID: 0}
  m_PrefabInstance: {fileID: 0}
  m_PrefabAsset: {fileID: 0}
  serializedVersion: 6
  m_Component:
  - component: {fileID: 594025230077665930}
  - component: {fileID: 7410387680605577019}
  m_Layer: 0
  m_Name: WeaponService
  m_TagString: Untagged
  m_Icon: {fileID: 0}
  m_NavMeshLayer: 0
  m_StaticEditorFlags: 0
  m_IsActive: 1
--- !u!4 &594025230077665930
Transform:
  m_ObjectHideFlags: 0
  m_CorrespondingSourceObject: {fileID: 0}
  m_PrefabInstance: {fileID: 0}
  m_PrefabAsset: {fileID: 0}
  m_GameObject: {fileID: 4918238262316254320}
  m_LocalRotation: {x: 0, y: 0, z: 0, w: 1}
  m_LocalPosition: {x: 0, y: 0, z: 0}
  m_LocalScale: {x: 1, y: 1, z: 1}
  m_Children: []
  m_Father: {fileID: 0}
  m_RootOrder: 0
  m_LocalEulerAnglesHint: {x: 0, y: 0, z: 0}
--- !u!114 &7410387680605577019
MonoBehaviour:
  m_ObjectHideFlags: 0
  m_CorrespondingSourceObject: {fileID: 0}
  m_PrefabInstance: {fileID: 0}
  m_PrefabAsset: {fileID: 0}
  m_GameObject: {fileID: 4918238262316254320}
  m_Enabled: 1
  m_EditorHideFlags: 0
  m_Script: {fileID: 11500000, guid: de4d871e6d28ef948898bf46fab1ddac, type: 3}
  m_Name: 
  m_EditorClassIdentifier: 
  weaponPrefabs:
  - {fileID: 8003264369893179409, guid: 0abb9e0a0d96cbe4badf7773219341dc, type: 3}
  - {fileID: 8003264369893179409, guid: 35ce1e30365c22b42aeabb3dc5afbf14, type: 3}
  - {fileID: 8003264369893179409, guid: 3e8a561672f594743b6993e99ff87ce4, type: 3}
  - {fileID: 8003264369893179409, guid: ec3ec9e40eab0404ca3f75798900e52e, type: 3}
  - {fileID: 8003264369893179409, guid: 8e72c61e147cab44e9de5f720ded4cf2, type: 3}
  - {fileID: 8003264369893179409, guid: 3d5004420834a794cac83372f80a9b27, type: 3}
  generationParameters:
  - {fileID: 11400000, guid: a614a208e4c7103439346aecf6e5eb67, type: 2}
  - {fileID: 11400000, guid: abba78f15feb1444a8271635c4b41c56, type: 2}
  - {fileID: 11400000, guid: 303d5ed4a0f477247a0bf191e22e5089, type: 2}
  - {fileID: 11400000, guid: f4612d58fdac4f64990906855d89c0f1, type: 2}
  - {fileID: 11400000, guid: 5cda3ecd0d9429e4696a13f6b01bb2b8, type: 2}
  - {fileID: 11400000, guid: 58de5aa49b24f80418ae16eff7f77f6c, type: 2}
  perLevelParameters:
  - {fileID: 11400000, guid: 1b321c634cda6e044afdae4ccbb15866, type: 2}
  - {fileID: 11400000, guid: e7ac709efeef1ac49aac2344c7ac403e, type: 2}
  - {fileID: 11400000, guid: 0ff60ff58db23954f963b1e79ada298d, type: 2}
  - {fileID: 11400000, guid: c05bbf293598fa241adab162e3d24f79, type: 2}
  - {fileID: 11400000, guid: 0fa0498fc90f0e9409e52c154b596412, type: 2}
  - {fileID: 11400000, guid: de81c2378ad98e8478cb077306d8ee8c, type: 2}
