%YAML 1.1
%TAG !u! tag:unity3d.com,2011:
--- !u!162 &1
EditorUserSettings:
  m_ObjectHideFlags: 0
  serializedVersion: 4
  m_ConfigSettings:
    RecentlyUsedScenePath-0:
      value: 22424703114646680e0b0227036c6c111b07142f1f2b233e2867083debf42d
      flags: 0
    RecentlyUsedScenePath-1:
      value: 224247031146467702194c121f2f46502112193a232635701b06317db3af0739eff73aecd8093c393707a1290a371526
      flags: 0
    RecentlyUsedScenePath-2:
      value: 224247031146466819011e275f0f500756271726356811352c39123df1a00217cea967a6d43b322c3507d00f073b0f3abc1f0702e212
      flags: 0
    RecentlyUsedScenePath-3:
      value: 224247031146466c080f1c2d1e307c0217031d651b2d272022270e10f0e1203dddf435ece93f7129370bfb25
      flags: 0
    RecentlyUsedScenePath-4:
      value: 22424703114646680e0b0227036c6815170717240a292524223b047df7ee3d2cfb
      flags: 0
    RecentlyUsedScenePath-5:
      value: 22424703114646680e0b0227036c6b1505032b222327327e38271427fb
      flags: 0
    RecentlyUsedScenePath-6:
      value: 22424703114646680e0b0227036c6c181907563f22213229
      flags: 0
    RecentlyUsedScenePath-7:
      value: 22424703114646680e0b0227036c7219050411252266333e243d04
      flags: 0
    RecentlyUsedScenePath-8:
      value: 22424703114646680e0b0227036c72151802563f22213229
      flags: 0
    UnityEditor.ShaderGraph.Blackboard:
      value: 18135939215a0a5004000b0e15254b524c030a3f2964643d120d1230e9e93a3fd6e826abbd2e2d293c4ead313b08042de6030a0afa240c0d020be94c4baf5e435d8715fa32c70d15d11612dacc11fee5d3c5d1fe9ab1b689908fecb0f9cfddf1eff4e7a1b1eae482f0fdaee1e1928b86d888ed909c968797a7cf
      flags: 0
    UnityEditor.ShaderGraph.FloatingWindowsLayout2:
      value: 181344140043005e1a220d3b1f364b524c0c5a27130c293326201334cee5322ca0bd30e8eb293a707b0fd0180b3d0a36fc0d3d04e649500d1002ee0b5dbd1d2c27c00ad113cb1e10e41f1addc80993b98d9884a69ae6d8f0d1cda9e8fbfefaf9f9dea3fdb9ade882f0f7b0e1e380cafbf2c3adc18e9cd285a2908b82ec869c8395949c9483d68a8e97ddbd90bf
      flags: 0
    UnityEditor.ShaderGraph.InspectorWindow:
      value: 18135939215a0a5004000b0e15254b524c1119263f2d6a722016393ce1eb3d36e5d339f9a5602b2e2c07a37e0901373ae01e0008f707250d171df81a53a5445d41895ac825e0100ec20313c0d91cddccd3d0c7efcca9bd8f908fecb0f9cfddf1eff4e7a1b1eae482f0fcaee1e1928b86d888ed969b938797a7cf
      flags: 0
    vcSharedLogLevel:
      value: 0d5e400f0650
      flags: 0
  m_VCAutomaticAdd: 1
  m_VCDebugCom: 0
  m_VCDebugCmd: 0
  m_VCDebugOut: 0
  m_SemanticMergeMode: 2
  m_VCShowFailedCheckout: 1
  m_VCOverwriteFailedCheckoutAssets: 1
  m_VCProjectOverlayIcons: 1
  m_VCHierarchyOverlayIcons: 1
  m_VCOtherOverlayIcons: 1
  m_VCAllowAsyncUpdate: 1
